…
chapters_to_remove = c('Selection Test', 'Repository', 'Bridge Intervention Curriculum', 'M1.1 Scaffold test','Tally Marks')

chapters_with_no_data = c('Principle of Mathematical Induction')

repo <- repo %>% 
  filter(!chapter %in%  chapters_to_remove) %>%
  filter(!chapter %in%  chapters_with_no_data)

repo %>% group_by(chapter) %>% summarize(count_qs =n())
```

```
## # A tibble: 26 x 2
##    chapter                          count_qs
##    <chr>                               <int>
##  1 3 Dimensional Geometry                135
##  2 Applications of Derivatives           250
##  3 Binomial Theorem                      307
##  4 Complex Numbers                       394
##  5 Conic Sections - I                    289
##  6 Conic Sections - II                   431
##  7 Continuity and Differentiability      277
##  8 Definite Integration                  195
##  9 Differential Equations                 80
## 10 Functions 2                           159
## # ... with 16 more rows
```
…
